…
    ## Warning: There were 43 warnings in `mutate()`.
    ## The first warning was:
    ## ℹ In argument: `tidy = map(fit, ~tidy(.x, conf.int = TRUE, conf.level = 0.95,
    ##   exponentiate = TRUE))`.
    ## ℹ In group 1: `city_state = "Albuquerque, NM"`.
    ## Caused by warning:
    ## ! glm.fit: fitted probabilities numerically 0 or 1 occurred
    ## ℹ Run `dplyr::last_dplyr_warnings()` to see the 42 remaining warnings.

``` r
city_or_results
```

    ## # A tibble: 47 × 8
    ## # Groups:   city_state [47]
    ##    city_state      term  estimate std.error statistic p.value conf.low conf.high
    ##    <chr>           <chr>    <dbl>     <dbl>     <dbl>   <dbl>    <dbl>     <dbl>
    ##  1 Albuquerque, NM vict…    1.77      0.385  1.48       0.139    0.825      3.76
    ##  2 Stockton, CA    vict…    1.35      0.397  0.760      0.447    0.626      2.99
    ##  3 Fresno, CA      vict…    1.34      0.425  0.680      0.496    0.567      3.05
    ##  4 Nashville, TN   vict…    1.03      0.210  0.160      0.873    0.681      1.56
    ##  5 Richmond, VA    vict…    1.01      0.359  0.0168     0.987    0.483      1.99
    ##  6 Atlanta, GA     vict…    1.00      0.194  0.000397   1.000    0.680      1.46
    ##  7 Tulsa, OK       vict…    0.976     0.237 -0.104      0.917    0.609      1.54
    ##  8 Oklahoma City,… vict…    0.974     0.227 -0.116      0.908    0.623      1.52
    ##  9 Minneapolis, MN vict…    0.947     0.348 -0.156      0.876    0.476      1.88
    ## 10 Indianapolis, … vict…    0.919     0.154 -0.551      0.582    0.678      1.24
    ## # ℹ 37 more rows
…
